<svg 
 xmlns="http://www.w3.org/2000/svg"
 xmlns:xlink="http://www.w3.org/1999/xlink"
 width="17px" height="18px">
    <path d="M11,9.4l0.3,1.2c0.1,0.6,0.5,1,1,1.3l1.5,0.8c1,0.5,1.8,1.5,2.1,2.6l0.6,2.2h-16l0.6-2.2c0.3-1.1,1-2.1,2.1-2.6
        l1.5-0.8c0.5-0.3,0.9-0.7,1-1.3L6,9.4 M12.5,5V4.5c0-2.2-1.8-4-4-4h0c-2.2,0-4,1.8-4,4V5c0,2.2,1,4.3,2.8,5.6l0,0
        c0.7,0.5,1.7,0.5,2.4,0l0,0C11.5,9.3,12.5,7.2,12.5,5z" />
</svg>

