<!-- Generator: Adobe Illustrator 19.0.0, SVG Export Plug-In  -->
<svg version="1.1"
	 xmlns="http://www.w3.org/2000/svg" xmlns:xlink="http://www.w3.org/1999/xlink" xmlns:a="http://ns.adobe.com/AdobeSVGViewerExtensions/3.0/"
	 x="0px" y="0px" width="29.7px" height="29.3px" viewBox="0 0 29.7 29.3" style="enable-background:new 0 0 29.7 29.3;"
	 xml:space="preserve">
<style type="text/css">
	.strr1{fill:none;stroke:#231F20;stroke-linecap:round;stroke-linejoin:round;stroke-miterlimit:10;}
	.str2{fill:none;stroke:#231F20;stroke-linecap:round;stroke-linejoin:round;}
</style>
<g>
	<path class="strr1" d="M13.5,7.9c-0.3,0.9-1.2,1.4-2.2,1.2c-0.9-0.3-1.4-1.3-1.1-2.2c0.3-0.9,1.2-1.4,2.2-1.2C13.2,6,13.7,7,13.5,7.9
		z"/>
	<path class="strr1" d="M10.3,26.7c0,0,0-3.9-0.1-5.2c0-0.2-0.1-0.4-0.3-0.6l-2.7-3C7,17.5,7,17,7.1,16.6l1.2-3.8
		c0.3-0.9,1.2-1.6,2.1-1.4c1,0.2,1.5,1.2,1.3,2.4l-0.3,2.8l3.1,0.1"/>
	<polyline class="strr1" points="6.3,19.7 4.7,21.5 0.5,21.5 	"/>
	<polyline class="strr1" points="6.7,11.6 4.9,11.6 2.8,15.4 	"/>
	<polyline class="str2" points="14.2,21.7 14.2,23.5 20.2,23.5 	"/>
	<polyline class="str2" points="14.2,3.5 14.2,0.5 29.2,0.5 	"/>
	<path class="str2" d="M10.6,9.9"/>
	<path class="str2" d="M10.6,16.8"/>
	<polygon class="str2" points="29.2,0.6 29.2,23.6 20.2,28.8 20.2,5.8 	"/>
</g>
</svg>
